<svg width="25" height="44" viewBox="0 0 25 44" fill="none" xmlns="http://www.w3.org/2000/svg">
<path d="M6.72529 43.0554V23.0253H0.568359V15.8135H6.72529V9.6537C6.72529 4.81327 10.3622 0.368164 18.7425 0.368164C22.1355 0.368164 24.6445 0.647979 24.6445 0.647979L24.4468 7.38257C24.4468 7.38257 21.888 7.36114 19.0958 7.36114C16.0737 7.36114 15.5896 8.55916 15.5896 10.5476V15.8135H24.687L24.2912 23.0253H15.5896V43.0554H6.72529Z" fill="#32DED6"/>
</svg>
